{
  "project_info": {
    "project_number": "1044634899165",
    "firebase_url": "https://gredu-notif.firebaseio.com",
    "project_id": "gredu-notif",
    "storage_bucket": "gredu-notif.appspot.com"
  },
  "client": [
    {
      "client_info": {
        "mobilesdk_app_id": "1:1044634899165:android:bfdb3bf41ee7d7e5",
        "android_client_info": {
          "package_name": "co.gredu.parent"
        }
      },
      "oauth_client": [
        {
          "client_id": "1044634899165-706idtt3h2sidacufnrckjso9v7lth2l.apps.googleusercontent.com",
          "client_type": 1,
          "android_info": {
            "package_name": "co.gredu.parent",
            "certificate_hash": "b6594573bedab652a06c69b0b75d7e580b1f14a0"
          }
        },
        {
          "client_id": "1044634899165-cceu6dkf367usc6k7oimejusbprk1aio.apps.googleusercontent.com",
          "client_type": 3
        }
      ],
      "api_key": [
        {
          "current_key": "AIzaSyBiQgENhpM4-jiX5qSSWbapPzZMV5TAqvo"
        }
      ],
      "services": {
        "appinvite_service": {
          "other_platform_oauth_client": [
            {
              "client_id": "1044634899165-cceu6dkf367usc6k7oimejusbprk1aio.apps.googleusercontent.com",
              "client_type": 3
            },
            {
              "client_id": "1044634899165-pufo5s2jv3ud3up691vvadht9noio12e.apps.googleusercontent.com",
              "client_type": 2,
              "ios_info": {
                "bundle_id": "co.gredu.teacher.dev",
                "app_store_id": "1488728223"
              }
            }
          ]
        }
      }
    },
    {
      "client_info": {
        "mobilesdk_app_id": "1:1044634899165:android:fc2b3d8dc2209ce4",
        "android_client_info": {
          "package_name": "co.gredu.parent.development"
        }
      },
      "oauth_client": [
        {
          "client_id": "1044634899165-mp3vc26r1cjjvqaoghvpjqbe3tko24mh.apps.googleusercontent.com",
          "client_type": 1,
          "android_info": {
            "package_name": "co.gredu.parent.development",
            "certificate_hash": "237ded88830b988744d11e42a65fc61615f39e65"
          }
        },
        {
          "client_id": "1044634899165-cceu6dkf367usc6k7oimejusbprk1aio.apps.googleusercontent.com",
          "client_type": 3
        }
      ],
      "api_key": [
        {
          "current_key": "AIzaSyBiQgENhpM4-jiX5qSSWbapPzZMV5TAqvo"
        }
      ],
      "services": {
        "appinvite_service": {
          "other_platform_oauth_client": [
            {
              "client_id": "1044634899165-cceu6dkf367usc6k7oimejusbprk1aio.apps.googleusercontent.com",
              "client_type": 3
            },
            {
              "client_id": "1044634899165-pufo5s2jv3ud3up691vvadht9noio12e.apps.googleusercontent.com",
              "client_type": 2,
              "ios_info": {
                "bundle_id": "co.gredu.teacher.dev",
                "app_store_id": "1488728223"
              }
            }
          ]
        }
      }
    },
    {
      "client_info": {
        "mobilesdk_app_id": "1:1044634899165:android:deba167a67ec16e5",
        "android_client_info": {
          "package_name": "co.gredu.parent.qa"
        }
      },
      "oauth_client": [
        {
          "client_id": "1044634899165-lgqjoqo6furcjq5jcld1igkbbi6uqqfr.apps.googleusercontent.com",
          "client_type": 1,
          "android_info": {
            "package_name": "co.gredu.parent.qa",
            "certificate_hash": "237ded88830b988744d11e42a65fc61615f39e65"
          }
        },
        {
          "client_id": "1044634899165-cceu6dkf367usc6k7oimejusbprk1aio.apps.googleusercontent.com",
          "client_type": 3
        }
      ],
      "api_key": [
        {
          "current_key": "AIzaSyBiQgENhpM4-jiX5qSSWbapPzZMV5TAqvo"
        }
      ],
      "services": {
        "appinvite_service": {
          "other_platform_oauth_client": [
            {
              "client_id": "1044634899165-cceu6dkf367usc6k7oimejusbprk1aio.apps.googleusercontent.com",
              "client_type": 3
            },
            {
              "client_id": "1044634899165-pufo5s2jv3ud3up691vvadht9noio12e.apps.googleusercontent.com",
              "client_type": 2,
              "ios_info": {
                "bundle_id": "co.gredu.teacher.dev",
                "app_store_id": "1488728223"
              }
            }
          ]
        }
      }
    },
    {
      "client_info": {
        "mobilesdk_app_id": "1:1044634899165:android:34273b0b4c522922",
        "android_client_info": {
          "package_name": "co.gredu.parent.uat"
        }
      },
      "oauth_client": [
        {
          "client_id": "1044634899165-cceu6dkf367usc6k7oimejusbprk1aio.apps.googleusercontent.com",
          "client_type": 3
        }
      ],
      "api_key": [
        {
          "current_key": "AIzaSyBiQgENhpM4-jiX5qSSWbapPzZMV5TAqvo"
        }
      ],
      "services": {
        "appinvite_service": {
          "other_platform_oauth_client": [
            {
              "client_id": "1044634899165-cceu6dkf367usc6k7oimejusbprk1aio.apps.googleusercontent.com",
              "client_type": 3
            },
            {
              "client_id": "1044634899165-pufo5s2jv3ud3up691vvadht9noio12e.apps.googleusercontent.com",
              "client_type": 2,
              "ios_info": {
                "bundle_id": "co.gredu.teacher.dev",
                "app_store_id": "1488728223"
              }
            }
          ]
        }
      }
    },
    {
      "client_info": {
        "mobilesdk_app_id": "1:1044634899165:android:4e6ca6ce5e43a2a7",
        "android_client_info": {
          "package_name": "co.gredu.student"
        }
      },
      "oauth_client": [
        {
          "client_id": "1044634899165-cceu6dkf367usc6k7oimejusbprk1aio.apps.googleusercontent.com",
          "client_type": 3
        }
      ],
      "api_key": [
        {
          "current_key": "AIzaSyBiQgENhpM4-jiX5qSSWbapPzZMV5TAqvo"
        }
      ],
      "services": {
        "appinvite_service": {
          "other_platform_oauth_client": [
            {
              "client_id": "1044634899165-cceu6dkf367usc6k7oimejusbprk1aio.apps.googleusercontent.com",
              "client_type": 3
            },
            {
              "client_id": "1044634899165-pufo5s2jv3ud3up691vvadht9noio12e.apps.googleusercontent.com",
              "client_type": 2,
              "ios_info": {
                "bundle_id": "co.gredu.teacher.dev",
                "app_store_id": "1488728223"
              }
            }
          ]
        }
      }
    },
    {
      "client_info": {
        "mobilesdk_app_id": "1:1044634899165:android:23498a21ff07d08f",
        "android_client_info": {
          "package_name": "co.gredu.student.dev"
        }
      },
      "oauth_client": [
        {
          "client_id": "1044634899165-h2686ghsvbabqou17vncie4div8q4h9r.apps.googleusercontent.com",
          "client_type": 1,
          "android_info": {
            "package_name": "co.gredu.student.dev",
            "certificate_hash": "237ded88830b988744d11e42a65fc61615f39e65"
          }
        },
        {
          "client_id": "1044634899165-cceu6dkf367usc6k7oimejusbprk1aio.apps.googleusercontent.com",
          "client_type": 3
        }
      ],
      "api_key": [
        {
          "current_key": "AIzaSyBiQgENhpM4-jiX5qSSWbapPzZMV5TAqvo"
        }
      ],
      "services": {
        "appinvite_service": {
          "other_platform_oauth_client": [
            {
              "client_id": "1044634899165-cceu6dkf367usc6k7oimejusbprk1aio.apps.googleusercontent.com",
              "client_type": 3
            },
            {
              "client_id": "1044634899165-pufo5s2jv3ud3up691vvadht9noio12e.apps.googleusercontent.com",
              "client_type": 2,
              "ios_info": {
                "bundle_id": "co.gredu.teacher.dev",
                "app_store_id": "1488728223"
              }
            }
          ]
        }
      }
    },
    {
      "client_info": {
        "mobilesdk_app_id": "1:1044634899165:android:af2296d94811946c",
        "android_client_info": {
          "package_name": "co.gredu.studentapp"
        }
      },
      "oauth_client": [
        {
          "client_id": "1044634899165-vg4oujnegp3kfeigld8qpta230qevda2.apps.googleusercontent.com",
          "client_type": 1,
          "android_info": {
            "package_name": "co.gredu.studentapp",
            "certificate_hash": "90aa81b1fde20aed91b4d8424d129f9ba23cfdfb"
          }
        },
        {
          "client_id": "1044634899165-cceu6dkf367usc6k7oimejusbprk1aio.apps.googleusercontent.com",
          "client_type": 3
        }
      ],
      "api_key": [
        {
          "current_key": "AIzaSyBiQgENhpM4-jiX5qSSWbapPzZMV5TAqvo"
        }
      ],
      "services": {
        "appinvite_service": {
          "other_platform_oauth_client": [
            {
              "client_id": "1044634899165-cceu6dkf367usc6k7oimejusbprk1aio.apps.googleusercontent.com",
              "client_type": 3
            },
            {
              "client_id": "1044634899165-pufo5s2jv3ud3up691vvadht9noio12e.apps.googleusercontent.com",
              "client_type": 2,
              "ios_info": {
                "bundle_id": "co.gredu.teacher.dev",
                "app_store_id": "1488728223"
              }
            }
          ]
        }
      }
    },
    {
      "client_info": {
        "mobilesdk_app_id": "1:1044634899165:android:4a0aa8363510745b",
        "android_client_info": {
          "package_name": "co.gredu.teacher"
        }
      },
      "oauth_client": [
        {
          "client_id": "1044634899165-0c90fovrqns8962t7v027eut4dtufhs8.apps.googleusercontent.com",
          "client_type": 1,
          "android_info": {
            "package_name": "co.gredu.teacher",
            "certificate_hash": "237ded88830b988744d11e42a65fc61615f39e65"
          }
        },
        {
          "client_id": "1044634899165-cceu6dkf367usc6k7oimejusbprk1aio.apps.googleusercontent.com",
          "client_type": 3
        }
      ],
      "api_key": [
        {
          "current_key": "AIzaSyBiQgENhpM4-jiX5qSSWbapPzZMV5TAqvo"
        }
      ],
      "services": {
        "appinvite_service": {
          "other_platform_oauth_client": [
            {
              "client_id": "1044634899165-cceu6dkf367usc6k7oimejusbprk1aio.apps.googleusercontent.com",
              "client_type": 3
            },
            {
              "client_id": "1044634899165-pufo5s2jv3ud3up691vvadht9noio12e.apps.googleusercontent.com",
              "client_type": 2,
              "ios_info": {
                "bundle_id": "co.gredu.teacher.dev",
                "app_store_id": "1488728223"
              }
            }
          ]
        }
      }
    },
    {
      "client_info": {
        "mobilesdk_app_id": "1:1044634899165:android:d60095d552a16bcb",
        "android_client_info": {
          "package_name": "co.gredu.teacher.development"
        }
      },
      "oauth_client": [
        {
          "client_id": "1044634899165-023768ct0i4a0ld5e4e8m2llo4h9ii0e.apps.googleusercontent.com",
          "client_type": 1,
          "android_info": {
            "package_name": "co.gredu.teacher.development",
            "certificate_hash": "cd5147a5d63bffa9e2e62b527be7f2852f746db7"
          }
        },
        {
          "client_id": "1044634899165-cceu6dkf367usc6k7oimejusbprk1aio.apps.googleusercontent.com",
          "client_type": 3
        }
      ],
      "api_key": [
        {
          "current_key": "AIzaSyBiQgENhpM4-jiX5qSSWbapPzZMV5TAqvo"
        }
      ],
      "services": {
        "appinvite_service": {
          "other_platform_oauth_client": [
            {
              "client_id": "1044634899165-cceu6dkf367usc6k7oimejusbprk1aio.apps.googleusercontent.com",
              "client_type": 3
            },
            {
              "client_id": "1044634899165-pufo5s2jv3ud3up691vvadht9noio12e.apps.googleusercontent.com",
              "client_type": 2,
              "ios_info": {
                "bundle_id": "co.gredu.teacher.dev",
                "app_store_id": "1488728223"
              }
            }
          ]
        }
      }
    },
    {
      "client_info": {
        "mobilesdk_app_id": "1:1044634899165:android:38d237554afe7767",
        "android_client_info": {
          "package_name": "co.gredu_student"
        }
      },
      "oauth_client": [
        {
          "client_id": "1044634899165-am91pfg9lvlqlcb92lvloregc8jli5rn.apps.googleusercontent.com",
          "client_type": 1,
          "android_info": {
            "package_name": "co.gredu_student",
            "certificate_hash": "237ded88830b988744d11e42a65fc61615f39e65"
          }
        },
        {
          "client_id": "1044634899165-cceu6dkf367usc6k7oimejusbprk1aio.apps.googleusercontent.com",
          "client_type": 3
        }
      ],
      "api_key": [
        {
          "current_key": "AIzaSyBiQgENhpM4-jiX5qSSWbapPzZMV5TAqvo"
        }
      ],
      "services": {
        "appinvite_service": {
          "other_platform_oauth_client": [
            {
              "client_id": "1044634899165-cceu6dkf367usc6k7oimejusbprk1aio.apps.googleusercontent.com",
              "client_type": 3
            },
            {
              "client_id": "1044634899165-pufo5s2jv3ud3up691vvadht9noio12e.apps.googleusercontent.com",
              "client_type": 2,
              "ios_info": {
                "bundle_id": "co.gredu.teacher.dev",
                "app_store_id": "1488728223"
              }
            }
          ]
        }
      }
    },
    {
      "client_info": {
        "mobilesdk_app_id": "1:1044634899165:android:866203b28bb29617",
        "android_client_info": {
          "package_name": "co.gredu_student.dev"
        }
      },
      "oauth_client": [
        {
          "client_id": "1044634899165-dpn16d1apf5v2d0mlbeg38sd5shoq5m3.apps.googleusercontent.com",
          "client_type": 1,
          "android_info": {
            "package_name": "co.gredu_student.dev",
            "certificate_hash": "237ded88830b988744d11e42a65fc61615f39e65"
          }
        },
        {
          "client_id": "1044634899165-cceu6dkf367usc6k7oimejusbprk1aio.apps.googleusercontent.com",
          "client_type": 3
        }
      ],
      "api_key": [
        {
          "current_key": "AIzaSyBiQgENhpM4-jiX5qSSWbapPzZMV5TAqvo"
        }
      ],
      "services": {
        "appinvite_service": {
          "other_platform_oauth_client": [
            {
              "client_id": "1044634899165-cceu6dkf367usc6k7oimejusbprk1aio.apps.googleusercontent.com",
              "client_type": 3
            },
            {
              "client_id": "1044634899165-pufo5s2jv3ud3up691vvadht9noio12e.apps.googleusercontent.com",
              "client_type": 2,
              "ios_info": {
                "bundle_id": "co.gredu.teacher.dev",
                "app_store_id": "1488728223"
              }
            }
          ]
        }
      }
    },
    {
      "client_info": {
        "mobilesdk_app_id": "1:1044634899165:android:04b610cf8453ee84",
        "android_client_info": {
          "package_name": "com.pesantrenku"
        }
      },
      "oauth_client": [
        {
          "client_id": "1044634899165-cceu6dkf367usc6k7oimejusbprk1aio.apps.googleusercontent.com",
          "client_type": 3
        }
      ],
      "api_key": [
        {
          "current_key": "AIzaSyBiQgENhpM4-jiX5qSSWbapPzZMV5TAqvo"
        }
      ],
      "services": {
        "appinvite_service": {
          "other_platform_oauth_client": [
            {
              "client_id": "1044634899165-cceu6dkf367usc6k7oimejusbprk1aio.apps.googleusercontent.com",
              "client_type": 3
            },
            {
              "client_id": "1044634899165-pufo5s2jv3ud3up691vvadht9noio12e.apps.googleusercontent.com",
              "client_type": 2,
              "ios_info": {
                "bundle_id": "co.gredu.teacher.dev",
                "app_store_id": "1488728223"
              }
            }
          ]
        }
      }
    },
    {
      "client_info": {
        "mobilesdk_app_id": "1:1044634899165:android:71e9c8169de08001",
        "android_client_info": {
          "package_name": "com.pesantrenku.development"
        }
      },
      "oauth_client": [
        {
          "client_id": "1044634899165-cceu6dkf367usc6k7oimejusbprk1aio.apps.googleusercontent.com",
          "client_type": 3
        }
      ],
      "api_key": [
        {
          "current_key": "AIzaSyBiQgENhpM4-jiX5qSSWbapPzZMV5TAqvo"
        }
      ],
      "services": {
        "appinvite_service": {
          "other_platform_oauth_client": [
            {
              "client_id": "1044634899165-cceu6dkf367usc6k7oimejusbprk1aio.apps.googleusercontent.com",
              "client_type": 3
            },
            {
              "client_id": "1044634899165-pufo5s2jv3ud3up691vvadht9noio12e.apps.googleusercontent.com",
              "client_type": 2,
              "ios_info": {
                "bundle_id": "co.gredu.teacher.dev",
                "app_store_id": "1488728223"
              }
            }
          ]
        }
      }
    }
  ],
  "configuration_version": "1"
}